EDA-challenge.qmd
…
Eureka! It took me too long to realize all I had to do was add the “<- d” after the first “d”.

print(d_mut)

# A tibble: 213 × 6
   Family Brain_Size_Species_M…¹ Body_mass_male_mean Binomial Average_Brain_Size
   <chr>                   <dbl>               <dbl> <chr>                 <dbl>
 1 Tarsi…                   3.16                 128 Tarsius…               3.26
 2 Tarsi…                  NA                     NA Tarsius…               3.26
 3 Tarsi…                   3.36                 134 Tarsius…               3.26
 4 Cheir…                   5.81                 438 Cheirog…               4.04
 5 Cheir…                   2.6                  140 Cheirog…               4.04
 6 Cheir…                   1.63                  63 Microce…               4.04
 7 Cheir…                  NA                     31 Microce…               4.04
 8 Cheir…                   1.72                  43 Microce…               4.04
 9 Cheir…                   5.8                  311 Mirza c…               4.04
10 Cheir…                   6.68                 328 Phaner …               4.04
# ℹ 203 more rows
# ℹ abbreviated name: ¹​Brain_Size_Species_Mean
# ℹ 1 more variable: Average_Male_Mass <dbl>
